%YAML 1.1
%TAG !u! tag:unity3d.com,2011:
--- !u!114 &11400000
MonoBehaviour:
  m_ObjectHideFlags: 0
  m_CorrespondingSourceObject: {fileID: 0}
  m_PrefabInstance: {fileID: 0}
  m_PrefabAsset: {fileID: 0}
  m_GameObject: {fileID: 0}
  m_Enabled: 1
  m_EditorHideFlags: 0
  m_Script: {fileID: 11500000, guid: d490774ffe3cf8549bc1c4c97f0799a3, type: 3}
  m_Name: Level 13
  m_EditorClassIdentifier: 
  _flasksList:
  - _waterPartsColorList: 04000000020000000100000003000000
  - _waterPartsColorList: 02000000050000000300000004000000
  - _waterPartsColorList: 02000000010000000300000004000000
  - _waterPartsColorList: 05000000010000000100000004000000
  - _waterPartsColorList: 05000000050000000300000002000000
  - _waterPartsColorList: 
  - _waterPartsColorList: 
